[  
   {  
      "moduleid":"1",
      "modulename":"ALIPAY1",
      "moduledescription":"module ALIPAY1"
   },
   {  
      "moduleid":"2",
      "modulename":"ALIPAY2",
      "moduledescription":"module ALIPAY2"
   }
]
