[  
   {  
      "moduleid":"1",
      "modulename":"ALIPAY1",
      "moduledescription":"module ALIPAY1"
   },
   {  
      "moduleid":"2",
      "modulename":"ALIPAY2",
      "moduledescription":"module ALIPAY2"
   },
   {  
      "moduleid":"3",
      "modulename":"cash",
      "moduledescription":"module cash"
   },

   {
      "moduleid":"4",
      "modulename":"module odd",
      "moduledescription":"module odd",
      "requestcount":"100"
   }
]
